<?xml version="1.0" encoding="utf-8"?>
<!-- Generator: Adobe Illustrator 21.1.0, SVG Export Plug-In . SVG Version: 6.00 Build 0)  -->
<svg version="1.1" id="Camada_1" xmlns="http://www.w3.org/2000/svg" xmlns:xlink="http://www.w3.org/1999/xlink" x="0px" y="0px"
	 viewBox="0 0 60 51" style="enable-background:new 0 0 60 51;" xml:space="preserve">
<style type="text/css">
	.st0{fill:#C5D9EF;}
	.st1{fill:#002A76;}
	.st2{fill:#FFFFFF;}
</style>
<title>011_223_team_group_employee_worker_man</title>
<desc>Created with Sketch.</desc>
<g id="operador">
	<g id="omni_consultar_01" transform="translate(-47.000000, -645.000000)">
		<g id="Group-Copy" transform="translate(20.000000, 605.000000)">
			<g id="_x30_11_x5F_223_x5F_team_x5F_group_x5F_employee_x5F_worker_x5F_man" transform="translate(27.000000, 40.000000)">
				<path id="Shape" class="st0" d="M41.8,45.3c0,0.7-19.5,0.7-19.4,0c0.4-6.6,0.5-13.4,0.5-13.4l0.3-0.4c-3.6-2.4-6-6.9-6-14
					c0-9.8,6.1-16.6,17-16.6c13.8,0,17.7,4.7,19.4,9.7c0.7,1.5,1.1,3.1,1.1,4.7c0.1,1.9-0.5,3.9,0,4.8c1.9,4.1,4.3,8.4,4.2,8.9
					c-0.3,2.3-2.8,1.5-4.6,1.9c-0.4,1.8-0.4,3.6-0.1,5.3c0.1,1.3-1.2,4-0.8,5C55.5,46.3,52.8,48.7,41.8,45.3z"/>
				<path id="Shape_1_" class="st0" d="M33.8,45.3c0,0.7-19.5,0.7-19.4,0c0.4-6.6,0.5-13.4,0.5-13.4l0.3-0.4c-3.7-2.4-6-6.9-6-14
					C9.1,7.8,15.2,1,26.2,1c13.7,0,17.7,4.7,19.4,9.7c0.7,1.5,1.1,3.1,1.1,4.7c0.1,1.9-0.5,3.9,0,4.8c1.9,4.1,4.3,8.4,4.2,8.9
					c-0.3,2.3-2.8,1.5-4.6,1.9c-0.4,1.8-0.4,3.6-0.1,5.3c0.1,1.3-1.2,4-0.8,5C47.5,46.3,44.8,48.7,33.8,45.3z"/>
				<path id="Shape_2_" class="st1" d="M41.9,47.9h-0.5c-0.6,0-1-0.5-1-1c0-0.6,0.5-1,1-1c1.7,0.1,2.9-0.3,3.3-0.9
					c0.6-0.8,0.1-2.3-0.3-3.3c-0.2-1.1-0.1-2.2,0.3-3.2c0.2-0.6,0.4-1.3,0.4-2c-0.4-1.9-0.4-3.9,0.1-5.8c0.1-0.4,0.4-0.6,0.8-0.7
					c0.5-0.1,0.9-0.1,1.4-0.1c1.8-0.1,2.2-0.2,2.3-0.8c-0.2-0.5-1-2.3-1.8-3.9c-0.8-1.6-1.5-3-2.3-4.6c-0.3-1-0.4-2-0.2-3
					c0.1-0.7,0.1-1.4,0.1-2.2c0-1.5-0.4-3.1-1-4.5c-0.2-0.5,0.1-1.1,0.5-1.3c0.5-0.2,1.1,0,1.3,0.5c0.8,1.6,1.2,3.3,1.2,5.1
					c0,0.8,0,1.6-0.1,2.4c-0.1,0.7-0.1,1.3,0,2c0.7,1.6,1.5,3.2,2.2,4.6c1.8,3.5,2.1,4.3,2,4.9c-0.3,2.5-2.8,2.6-4.2,2.7h-0.5
					c-0.2,1.4-0.2,2.8,0.1,4.2c0.1,1-0.1,2-0.4,3c-0.2,0.6-0.3,1.2-0.4,1.8c0.9,2.2,1,4,0.1,5.2S44.1,47.9,41.9,47.9z"/>
				<path id="Shape_3_" class="st1" d="M45.6,11.6c-0.4,0-0.8-0.3-1-0.7c-1-2.8-2.6-5.7-8.1-7.6c-0.4-0.1-0.6-0.4-0.7-0.8
					s0.1-0.7,0.3-1c0.3-0.2,0.7-0.3,1-0.2c6.3,2.1,8.2,5.7,9.3,8.8c0.2,0.5-0.1,1.1-0.6,1.3C45.8,11.6,45.7,11.6,45.6,11.6
					L45.6,11.6z"/>
				<path id="Shape_4_" class="st1" d="M49.9,47.9h-0.5c-0.6,0-1-0.5-1-1c0-0.6,0.5-1,1-1c1.7,0.1,2.9-0.3,3.3-0.9
					c0.6-0.8,0.1-2.3-0.3-3.3c-0.2-1.1-0.1-2.2,0.3-3.2c0.2-0.6,0.4-1.3,0.4-2c-0.4-1.9-0.4-3.9,0.1-5.8c0.1-0.4,0.4-0.6,0.8-0.7
					c0.5-0.1,0.9-0.1,1.4-0.1c1.8-0.1,2.2-0.2,2.3-0.8c-0.2-0.5-1-2.3-1.8-3.9c-0.8-1.6-1.5-3-2.3-4.6c-0.3-1-0.4-2-0.2-3
					c0.1-0.7,0.1-1.4,0.1-2.2c0-1.5-0.4-3.1-1-4.5c-0.2-0.5,0.1-1.1,0.5-1.3c0.5-0.2,1.1,0,1.3,0.5c0.8,1.6,1.2,3.3,1.2,5.1
					c0,0.8,0,1.6-0.1,2.4c-0.1,0.7-0.1,1.3,0,2c0.7,1.6,1.5,3.2,2.2,4.6c1.8,3.5,2.1,4.3,2,4.9c-0.3,2.5-2.8,2.6-4.2,2.7h-0.5
					c-0.2,1.4-0.2,2.8,0.1,4.2c0.1,1-0.1,2-0.4,3c-0.2,0.6-0.3,1.2-0.4,1.8c0.9,2.2,1,4,0.1,5.2S52.1,47.9,49.9,47.9z"/>
				<path id="Shape_5_" class="st1" d="M53.6,11.6c-0.4,0-0.8-0.3-1-0.7c-1-2.8-2.6-5.7-8.1-7.6c-0.4-0.1-0.6-0.4-0.7-0.8
					s0.1-0.7,0.3-1c0.3-0.2,0.7-0.3,1-0.2c6.3,2.1,8.2,5.7,9.3,8.8c0.2,0.5-0.1,1.1-0.6,1.3C53.8,11.6,53.7,11.6,53.6,11.6
					L53.6,11.6z"/>
				<path id="Shape_6_" class="st2" d="M25.8,45.3c-0.1,1.6,0,3.1,0.3,4.7H5c3-7,1.8-18,1.8-18l0.3-0.4c-3.6-2.4-6-6.9-6-14
					C1.1,7.8,7.2,1,18.2,1c13.8,0,17.7,4.7,19.4,9.7c0.7,1.5,1.1,3.1,1.1,4.7c0.1,1.9-0.5,3.9,0,4.8c1.9,4.1,4.3,8.4,4.2,8.9
					c-0.3,2.3-2.8,1.5-4.6,1.9c-0.4,1.8-0.4,3.6-0.1,5.3c0.1,1.3-1.2,4-0.8,5C39.5,46.3,36.8,48.7,25.8,45.3z"/>
				<path id="Shape_7_" class="st1" d="M34.5,38c-0.5,0-1,0-1.5-0.1c-0.6-0.1-0.9-0.6-0.9-1.1s0.6-0.9,1.1-0.9
					c1.3,0.3,2.7,0.1,3.9-0.5c0.3-0.2,0.7-0.2,1-0.1s0.5,0.5,0.6,0.8c0,0.4-0.1,0.7-0.4,0.9C37.2,37.8,35.8,38.1,34.5,38L34.5,38z"
					/>
				<path id="Shape_8_" class="st1" d="M31.3,23.2h-0.2c-0.6,0-1-0.4-1-1c0-0.6,0.4-1,1-1h0.2c0.6,0,1,0.4,1,1
					C32.3,22.8,31.9,23.2,31.3,23.2z"/>
				<path id="Shape_9_" class="st1" d="M34,22h-5.9c-0.6,0-1-0.4-1-1s0.4-1,1-1H34c0.6,0,1,0.4,1,1S34.6,22,34,22z"/>
				<path id="Shape_10_" class="st1" d="M36,32.5c-0.6,0.1-1.1-0.3-1.1-0.9s0.3-1.1,0.9-1.1c0.8-0.2,1.6-0.4,2.5-0.5
					c0.6-0.1,1.1,0.3,1.1,0.9c0.1,0.6-0.3,1.1-0.9,1.1c-0.7,0.1-1.4,0.3-2.1,0.5C36.2,32.5,36.1,32.5,36,32.5z"/>
				<path id="Shape_11_" class="st1" d="M33.9,47.9c-2.9-0.1-5.7-0.7-8.4-1.6l-0.8-0.3L24.4,46c-0.4-0.1-0.6-0.4-0.7-0.8
					c-0.1-0.4,0-0.7,0.3-1c0.3-0.3,0.7-0.3,1-0.2l0.3,0.1l0.8,0.2c8,2.5,10.1,1.4,10.6,0.8c0.7-0.8,0.3-2.3-0.2-3.5
					c-0.4-0.9,0-2.1,0.3-3.4c0.2-0.6,0.4-1.3,0.4-2c0-0.3-0.1-0.7-0.1-1c-0.2-1.5-0.2-3.1,0.2-4.6c0.1-0.4,0.4-0.7,0.8-0.7
					c0.6-0.1,1.1-0.1,1.7-0.1c1.7,0,2-0.2,2.1-0.8c-0.2-0.5-1-2.3-1.8-3.9s-1.5-3.1-2.3-4.7c-0.3-1-0.4-2-0.2-3
					c0.1-0.7,0.1-1.4,0.1-2.2c0-1.5-0.4-3-1.1-4.4c-0.2-0.3-0.1-0.7,0.1-1c0.2-0.3,0.6-0.4,0.9-0.4c0.4,0,0.7,0.3,0.8,0.6
					c0.8,1.6,1.2,3.3,1.2,5.1c0,0.8,0,1.6-0.1,2.4c-0.1,0.7-0.1,1.3,0,2c0.7,1.6,1.5,3.2,2.3,4.6c1.8,3.5,2.1,4.3,2,4.8
					c-0.3,2.6-2.6,2.6-4,2.6h-0.7c-0.2,1.1-0.2,2.2,0,3.2c0,0.4,0.1,0.7,0.1,1.1c0,0.9-0.2,1.8-0.5,2.6c-0.2,0.7-0.4,1.4-0.4,2.1
					c1,2.5,1,4.3-0.2,5.6C37.3,47.5,35.9,47.9,33.9,47.9z"/>
				<path id="Shape_12_" class="st1" d="M10,34c-0.1,0-0.2,0-0.3,0c-1.1-0.4-2.2-0.9-3.1-1.5c-4.2-2.8-6.4-8-6.4-14.9
					C0.1,6.7,7.1,0,18.2,0c14.9,0,18.7,5.5,20.3,10.3c0.1,0.3,0.1,0.7-0.2,1c-0.2,0.3-0.6,0.4-1,0.3c-0.4-0.1-0.6-0.3-0.8-0.7
					c-1.5-4.4-4.9-9-18.4-9c-10,0-16,5.8-16,15.6C2.1,23.9,4,28.3,7.7,30.7c0.8,0.5,1.7,1,2.7,1.3c0.6,0.1,0.9,0.6,0.8,1.2
					C11.1,33.7,10.6,34.1,10,34z"/>
				<path id="Shape_13_" class="st1" d="M26.1,51c-0.5,0-0.9-0.3-1-0.8c-0.2-1.3-0.3-2.5-0.3-3.8v-1.1c0-0.6,0.4-1,1-1
					c0.6,0,1,0.4,1,1v1.1c0,1.1,0,2.2,0.2,3.3c0.1,0.3,0,0.5-0.1,0.8c-0.1,0.2-0.4,0.4-0.6,0.5H26.1z"/>
				<path id="Shape_14_" class="st1" d="M5,51c-0.1,0-0.3,0-0.4-0.1c-0.5-0.2-0.7-0.8-0.5-1.3c2.8-6.7,1.8-17.4,1.8-17.5
					c-0.1-0.6,0.3-1,0.9-1.1c0.6-0.1,1,0.3,1.1,0.9c0,0.5,1.2,11.4-1.9,18.5C5.8,50.8,5.4,51,5,51z"/>
			</g>
		</g>
	</g>
</g>
</svg>
