<?xml version="1.0" encoding="utf-8"?>
<!-- Generator: Adobe Illustrator 21.1.0, SVG Export Plug-In . SVG Version: 6.00 Build 0)  -->
<svg version="1.1" id="Camada_1" xmlns="http://www.w3.org/2000/svg" xmlns:xlink="http://www.w3.org/1999/xlink" x="0px" y="0px"
	 viewBox="0 0 32 32" style="enable-background:new 0 0 32 32;" xml:space="preserve">
<style type="text/css">
	.st0{fill:#FFFFFF;}
	.st1{fill:#003085;}
</style>
<g>
	<circle class="st0" cx="16" cy="16" r="15.4"/>
	<path class="st1" d="M27.2,26.5c-1.5-1.3-3.8-2.3-6.8-2.8c-0.4-0.1-0.7-0.4-0.7-0.9v-1.5c0-1.2,1.4-2.6,1.5-4.3
		c0.4-0.8,0.7-1.8,0.8-2.7c0-0.4-0.1-0.8-0.3-1c0.1-0.6,0.2-1.3,0.3-2c0.5-2.7-0.5-4.7-2.9-5.5c-0.4-0.1-1.8-0.2-3.2-0.1
		c-1.5,0-3,0.2-3.2,0.3C10.4,7,9.4,8.6,9.9,11.3c0.1,0.7,0.2,1.3,0.3,2c-0.2,0.3-0.4,0.7-0.3,1c0.1,1,0.3,1.9,0.8,2.7
		c0.1,1.7,1.5,3,1.5,4.3v1.5c0,0.4-0.3,0.8-0.7,0.9c-2.9,0.5-5.3,1.5-6.8,2.8c5.8,6.2,15.6,6.5,21.7,0.7c0.2-0.2,0.4-0.4,0.7-0.7
		L27.2,26.5z"/>
	<path class="st1" d="M16,32C7.2,32,0,24.8,0,16S7.2,0,16,0s16,7.2,16,16C32,24.8,24.8,32,16,32z M16,1.2C7.8,1.2,1.2,7.8,1.2,16
		S7.8,30.8,16,30.8S30.8,24.2,30.8,16C30.8,7.8,24.2,1.2,16,1.2z"/>
</g>
</svg>
