<svg width="44" height="44" viewBox="0 0 44 44" fill="none" xmlns="http://www.w3.org/2000/svg">
<path d="M22 0C9.84974 0 0 9.84974 0 22C0 34.1503 9.84974 44 22 44C34.1503 44 44 34.1503 44 22C43.9863 9.85543 34.1446 0.0137405 22 0ZM22 42.5333C10.6598 42.5333 1.46667 33.3402 1.46667 22C1.46667 10.6598 10.6598 1.46667 22 1.46667C33.3402 1.46667 42.5333 10.6598 42.5333 22C42.5204 33.3349 33.3349 42.5204 22 42.5333Z" fill="#FF720A"/>
<path d="M21.9999 2.93311C20.1883 2.93212 18.3858 3.18891 16.6466 3.69577C16.3889 3.76387 16.1884 3.96645 16.123 4.22485C16.0576 4.48326 16.1376 4.7568 16.3319 4.93929C16.5262 5.12178 16.8042 5.18448 17.058 5.10304C24.3837 2.95446 32.259 5.776 36.5536 12.0878C40.8481 18.3996 40.5816 26.7609 35.8937 32.7864L27.5278 24.4198L31.9366 20.1811C32.234 19.8604 32.3132 19.3939 32.1382 18.993C31.9632 18.5922 31.5673 18.333 31.1299 18.3331H25.8712L29.9632 9.33951C30.1419 8.88794 30.0855 8.37719 29.8126 7.9755C29.5396 7.57381 29.0856 7.33327 28.5999 7.33311H18.7219C18.1031 7.33224 17.5504 7.71982 17.3403 8.30184L15.6933 12.5874L11.2104 8.10457C11.9486 7.527 12.7316 7.0091 13.5519 6.55577C13.7878 6.43325 13.9389 6.1927 13.9469 5.92703C13.9549 5.66136 13.8185 5.41217 13.5904 5.2757C13.3623 5.13924 13.0782 5.13687 12.8479 5.26951C4.41273 9.87968 0.727006 20.047 4.24851 28.9916C7.77002 37.9361 17.3979 42.8618 26.712 40.484C36.0261 38.1063 42.1148 29.1683 40.9179 19.6303C39.721 10.0923 31.6127 2.93584 21.9999 2.93311ZM18.7219 8.79977L28.6139 8.76751L24.2872 18.2744C24.1449 18.6137 24.1817 19.0017 24.3852 19.3082C24.5887 19.6147 24.932 19.7992 25.2999 19.7998H30.2213L26.4909 23.3858L16.8277 13.7226L18.7219 8.79977ZM4.39992 21.9998C4.40104 18.0908 5.70347 14.2934 8.10179 11.2066L13.9721 17.0732L11.7934 22.7463C11.6795 23.0818 11.7343 23.4517 11.9404 23.7398C12.1466 24.028 12.4789 24.1992 12.8333 24.1998H16.7837L14.7979 33.8145C14.6651 34.296 14.8766 34.8061 15.3112 35.0524C15.4815 35.1491 15.6741 35.1997 15.87 35.199C16.1613 35.2027 16.4404 35.0825 16.6378 34.8683L24.3554 27.4616L32.7865 35.8913C27.4834 40.0189 20.2916 40.7634 14.2555 37.8095C8.21934 34.8556 4.39444 28.7199 4.39992 21.9998ZM18.2863 24.1609C18.3907 23.8264 18.3296 23.4622 18.1216 23.1802C17.9136 22.8982 17.5837 22.7321 17.2333 22.7331H13.3701L15.1066 18.2128L23.3199 26.4262L16.4589 33.0137L18.2863 24.1609ZM33.9115 34.9409L9.05145 10.0809C9.37999 9.72377 9.72685 9.38277 10.0855 9.05424L34.9425 33.9113C34.6135 34.2682 34.2698 34.6119 33.9115 34.9424V34.9409Z" fill="#FF720A"/>
</svg>
