<svg xmlns="http://www.w3.org/2000/svg" xmlns:xlink="http://www.w3.org/1999/xlink" width="115" height="85" viewBox="0 0 115 85">
    <defs>
        <path id="a" d="M31.212 62c-13.92.004-26.108-9.34-29.722-22.788-3.613-13.448 2.25-27.647 14.295-34.625C27.831-2.39 43.059-.408 52.919 9.421a1.711 1.711 0 0 1-2.41 2.428C40.275 1.77 23.99 1.326 13.222 10.835S.876 36.565 9.606 47.974c8.731 11.408 24.796 14.117 36.783 6.201 11.986-7.916 15.809-23.758 8.752-36.273a1.724 1.724 0 0 1 2.991-1.71 30.788 30.788 0 0 1-.326 30.629A30.764 30.764 0 0 1 31.212 62z"/>
        <path id="b" d="M72.234 62a30.758 30.758 0 0 1-15.503-4.19 1.71 1.71 0 0 1 1.709-2.957c12.445 7.276 28.398 3.64 36.464-8.31 8.067-11.95 5.477-28.112-5.92-36.94C77.588.774 61.298 2.31 51.751 13.113c-9.547 10.803-9.074 27.165 1.083 37.397a1.711 1.711 0 0 1-2.427 2.41c-10.342-10.406-11.9-26.67-3.725-38.852C54.858 1.884 70.495-2.831 84.04 2.804c13.544 5.634 21.229 20.05 18.36 34.44C99.528 51.634 86.901 61.997 72.233 62z"/>
    </defs>
    <g fill="none" fill-rule="nonzero">
        <g transform="rotate(-12 106.829 8.457)">
            <use fill="#C5D9EF" fill-rule="evenodd" xlink:href="#a"/>
            <path stroke="#002A76" stroke-width="3" d="M31.208 63.5A32.264 32.264 0 0 0 59.1 47.58a32.288 32.288 0 0 0 .341-32.12 3.222 3.222 0 1 0-5.603 3.186c6.666 11.821 3.053 26.796-8.276 34.278-11.329 7.481-26.513 4.921-34.764-5.862-8.252-10.783-6.76-26.115 3.417-35.103 10.176-8.988 25.569-8.569 35.242.96a3.21 3.21 0 0 0 4.52-4.56C43.636-1.95 27.666-4.03 15.032 3.287 2.4 10.608-3.747 25.5.042 39.602 3.83 53.704 16.614 63.505 31.212 63.5h-.004z"/>
        </g>
        <g transform="rotate(-12 106.829 8.457)">
            <use fill="#FFF" fill-rule="evenodd" xlink:href="#b"/>
            <path stroke="#002A76" stroke-width="3" d="M72.234 63.5c15.384-.004 28.625-10.871 31.635-25.963 3.01-15.091-5.05-30.21-19.254-36.118C70.41-4.491 54.011.455 45.437 13.232c-8.575 12.777-6.94 29.832 3.906 40.746a3.21 3.21 0 1 0 4.555-4.525c-9.6-9.671-10.047-25.136-1.023-35.347 9.023-10.21 24.42-11.662 35.19-3.318 10.772 8.345 13.22 23.621 5.596 34.916-7.624 11.295-22.702 14.73-34.464 7.854-1.586-.832-3.467-.286-4.328 1.204a3.21 3.21 0 0 0 1.057 4.315A32.298 32.298 0 0 0 72.234 63.5z"/>
        </g>
    </g>
</svg>
