<svg width="36" height="62" viewBox="0 0 36 62" fill="none" xmlns="http://www.w3.org/2000/svg">
<path d="M1 9V47H35V9H1Z" fill="#C6D9EE"/>
<path d="M1 5.405C1 2.977 2.976 1 5.405 1H30.595C33.024 1 35 2.977 35 5.405M1 5.405V56.594C1 59.023 2.976 61 5.405 61H30.594C33.024 61 35 59.023 35 56.595V5.405M1 5.405V9M35 5.405V9M1 9V47H35V9M1 9H35M12.8577 4H22.8583C23.4103 4 23.8583 4.447 23.8583 5C23.8583 5.553 23.4103 6 22.8583 6H12.8577C12.3057 6 11.8577 5.553 11.8577 5C11.8577 4.447 12.3057 4 12.8577 4ZM18 58C15.794 58 14 56.206 14 54C14 51.794 15.794 50 18 50C20.206 50 22 51.794 22 54C22 56.206 20.206 58 18 58Z" stroke="#00256B" stroke-width="1.5"/>
</svg>
